<svg id="Слой_1" data-name="Слой 1" xmlns="http://www.w3.org/2000/svg" viewBox="0 0 66.88 47.75">
    <defs>
        <style>
            .cls-1{fill:#1396e4;}
            .cls-2,.cls-3{fill:none;stroke:#1396e4;stroke-width:2.13px;}
            .cls-2{stroke-miterlimit:22.93;}
            .cls-3{stroke-linecap:round;stroke-linejoin:round;}
        </style>
    </defs>
    <title>Специальные предложения</title>
    <path class="cls-1" d="M275.34,374.77h22.23a2,2,0,0,0,.31,2.13H275.34a1.22,1.22,0,0,0-1.22,1.22V417.4a1.22,1.22,0,0,0,1.22,1.22h57.28a1.22,1.22,0,0,0,1.22-1.22v-4.46a2.84,2.84,0,0,0,2.13.69v3.77a3.36,3.36,0,0,1-3.34,3.34H275.34A3.36,3.36,0,0,1,272,417.4V378.12a3.36,3.36,0,0,1,3.34-3.34h0Zm32.75,0h24.52a3.36,3.36,0,0,1,3.34,3.34v24.45a2.82,2.82,0,0,0-2.13-.71V378.12a1.22,1.22,0,0,0-1.22-1.22H310.39a4.72,4.72,0,0,0-.74-1.06,4,4,0,0,0-1.26-.85l-0.29-.22h0Z" transform="translate(-272 -373)"/>
    <path class="cls-1" d="M295.62,373h11.91a1.06,1.06,0,0,1,.81.38l7.64,7.74-1.08-.26-1,1.18-6.83-6.92h-8.93l11.28,11.42-0.11,1.68-0.46.76-14-14.18a1.06,1.06,0,0,1,.76-1.8h0Zm32.18,20.07L338.57,404a1.06,1.06,0,0,1,.3.81l-0.25,11.74a1.06,1.06,0,0,1-1.81.72l-16-16.2,0.92,0.22,1-1.25,13.8,14,0.19-8.83-9.56-9.68,0.1-1.57,0.51-.83h0Z" transform="translate(-272 -373)"/>
    <polygon class="cls-2" points="49.56 7.8 51.79 10.4 54.97 11.67 55.24 15.09 57.07 17.98 55.29 20.91 55.07 24.32 51.91 25.64 49.72 28.27 46.39 27.48 43.07 28.33 40.84 25.73 37.66 24.46 37.38 21.05 35.55 18.15 37.34 15.23 37.56 11.81 40.72 10.49 42.91 7.86 46.24 8.65 49.56 7.8 49.56 7.8"/>
    <path class="cls-3" d="M284.28,389.4a4.51,4.51,0,1,1-4.25,4.5,4.38,4.38,0,0,1,4.25-4.5h0Zm12.86,13a4.51,4.51,0,1,1-4.25,4.5,4.38,4.38,0,0,1,4.25-4.5h0Zm-15.48,8.93,17.87-22" transform="translate(-272 -373)"/>
</svg>