<svg id="Слой_1" data-name="Слой 1" xmlns="http://www.w3.org/2000/svg" viewBox="0 0 61.76 54.16">
    <defs>
        <style>
            .cls-1{fill:#1396e4;}
            .cls-2,.cls-3{fill:none;stroke:#1396e4;stroke-width:2.13px;}
            .cls-2{stroke-miterlimit:22.93;}
            .cls-3{stroke-linecap:round;stroke-linejoin:round;}
        </style>
    </defs>
    <title>Один договор</title>
    <path class="cls-1" d="M277.52,369h54.73a3.53,3.53,0,0,1,3.52,3.52v35a3.53,3.53,0,0,1-3.52,3.52h-5a2,2,0,0,0,.73-1.24,2.49,2.49,0,0,0,.11-0.89h4.12a1.39,1.39,0,0,0,1.39-1.39v-35a1.39,1.39,0,0,0-1.39-1.39H277.52a1.39,1.39,0,0,0-1.39,1.39v35a1.39,1.39,0,0,0,1.39,1.39h35a2.56,2.56,0,0,0,1.66,1.88,2.89,2.89,0,0,1,.3.24H277.52a3.53,3.53,0,0,1-3.52-3.52v-35a3.53,3.53,0,0,1,3.52-3.52h0Z" transform="translate(-274 -369)"/>
    <path class="cls-2" d="M322.53,394.5l2,2.39L327.5,398l0.25,3.14,1.68,2.66-1.64,2.69-0.2,3.14-2.9,1.21-2,2.42-3.06-.73-3,.78-2-2.39-2.92-1.16-0.25-3.14L309.67,404l1.64-2.69,0.2-3.14,2.9-1.21,2-2.42,3.06,0.73,3-.78h0Zm-3,5.75a3.67,3.67,0,1,1-3.67,3.67,3.67,3.67,0,0,1,3.67-3.67h0Z" transform="translate(-274 -369)"/>
    <path class="cls-3" d="M320.46,418.64l1.47,3.46,1.74-4.19,4,1.62-2.6-8.35m-5.2,1.83-3.09,8.87-2.08-4.46-3.94,1.83,1.71-5.66m-13.84-38.34h12.54m-19.57,3.39h26.6m-36.77,5.42h46.93m-46.93,4.74h46.93m-46.93,4.83h23m-12.48,6.23c3.62-1.54,5.51,1.62,4.64,3.94-0.75,2-2.55,2.18-4.31,1.4a3.1,3.1,0,0,1-1.87-2.89c0.21-2.94-2.92-2.51-2.78,0-0.51,1.09-1.11,1.4-1.9.05-0.54-1-1.08-1-1.62.23-0.91.87-1.44,0.78-1.67-.1a0.92,0.92,0,0,0-1.09-1.06" transform="translate(-274 -369)"/>
</svg>